{
    "author": ["Charged"],
    "install_msg": "Thanks for installing!",
    "name": "extendedadmin",
    "disabled": false,
    "short": "Awesome Admin Extention for red!",
    "description": "Awesome Admin Extention for red!",
    "tags": [],
    "requirements": [],
    "hidden": false,
    "end_user_data_statement": "This cog stores no personal data."
}
